814344 746587 468
873808 130314 525
496207 925655 525
117008 286273 443
405749 910162 525
374772 195578 443
891504 383160 525
544060 342140 470
886047 61055 525
899153 747524 525
260897 55460 443
83472 610626 470
936036 840623 476
764836 632907 504
300421 262148 407
146611 725584 509
525178 249517 470
343090 95849 443
397812 750753 509
118208 558448 470
101225 350568 443
796332 69745 509
782504 38601 509
800871 631279 504
57900 987354 525
89982 977635 525
55284 293341 443
409928 604774 470
323902 807391 509
888035 712365 525
595408 569849 434
23670 341712 443
22226 929812 525
112954 39815 354
93059 545593 470
334150 526639 470
688146 472979 509
972606 459514 525
711902 114691 509
445068 818311 509
946999 842819 507
488858 358975 449
726352 997244 525
144814 335805 443
918666 394297 525
765620 982347 525
831050 34458 509
884730 890719 445
782280 563624 509
143997 873423 525
214373 164963 373
33881 315207 443
810 821331 509
665402 320395 509
71680 558653 470
760750 393630 509
498756 230281 449
469257 976722 525
557016 412031 470
785149 244855 509
893114 496210 525
686747 989241 525
414568 622381 470
896876 856282 445
598278 85059 470
349815 826965 509
2160 955986 525
43864 596056 470
947060 155720 525
148408 110090 375
761441 581929 509
894114 590191 525
696567 631268 442
306883 771290 509
269314 722919 509
353315 78153 443
176171 205508 365
428356 690960 509
936371 79082 525
358434 21373 443
192098 206703 360
544810 965642 525
255765 36653 443
251690 586768 470
681657 96495 509
106269 703544 509
73670 206988 383
496854 3978 449
748267 478211 509
800846 283932 509
163428 830104 509
966563 382134 525
374235 20608 443
442209 420154 418
110564 516070 470
186635 632119 509
385590 162468 443
130020 417864 449
234250 898550 525
253150 949678 525
615956 539197 452
451407 455017 369
639279 607937 509
453287 988118 525
436005 622926 470
381799 728832 509
138394 549720 470
551023 13829 470
409989 844924 525
964779 297035 525
726773 30050 509
170854 628586 509
451476 30802 449
159794 249120 443
268961 896603 525
402470 782115 509
711170 183120 509
174544 151288 383
986959 735377 525
851608 5901 525
454053 684613 509
941287 589850 525
985093 343849 525
488239 159214 449
912533 98598 525
997113 289961 525
888379 143455 525
752342 118417 509
982854 869385 507
937611 32089 525
790046 659661 504
546236 133622 470
325394 622755 470
397169 673837 509
316078 562835 470
980477 486084 525
483189 42923 449
9582 988490 525
394745 194105 443
82966 944915 525
97266 706678 509
743940 67246 509
755139 681465 504
748137 675277 504
771014 206392 509
472728 421225 444
717023 936570 525
721916 183310 509
412760 450446 418
662981 576709 509
148849 567511 470
450479 377940 449
173518 425944 449
359973 450707 449
911304 465086 525
593165 559608 434
833088 824863 419
880698 561409 525
466712 838148 525
720191 311519 509
508005 401869 449
946320 530138 525
704353 929745 525
185914 307695 443
638095 16980 509
788088 755687 468
738608 634704 504
217098 793149 509
785490 910305 525
415497 66127 449
394973 512750 470
111508 578323 470
449385 877534 525
603132 810246 509
539380 759110 509
72741 756608 509
736061 383917 509
345795 97665 443
987338 728429 525
469679 324890 449
979129 277756 525
301762 170454 443
231717 327792 407
62261 919152 525
653716 477880 509
863450 832583 525
527422 393454 470
750785 390282 509
727794 710843 411
720289 452876 509
289812 857034 525
152679 706635 509
183843 132058 383
147524 221330 386
623456 549719 447
995326 373839 525
360891 938213 525
105424 712423 509
978179 288500 525
989001 809698 525
693142 102863 509
563632 160773 470
269752 727911 509
954990 315174 525
183465 175884 365
862988 360742 525
332498 343130 366
444879 774882 509
714269 487444 509
515305 834640 509
2071 903064 525
798856 542990 509
413410 792448 509
308349 971443 525
429749 395174 449
704845 75611 509
566066 6724 470
843282 155199 525
12187 116247 354
868696 52436 525
542345 487444 470
28102 752328 509
464805 44966 449
649902 7753 509
965578 988467 458
963493 871572 507
552911 852412 525
769768 409409 509
864816 691878 525
114570 208766 383
887555 344431 525
977805 326195 525
777989 645958 504
809455 558055 509
804029 891861 525
