53652 405759
409316 673120
165035 157715
717591 256271
586911 426289
290941 979579
938584 3262
279369 68894
295582 196588
153715 394823
193770 816128
175934 261755
571233 64641
943053 958769
187262 500955
158346 644218
915988 371742
680875 684949
804631 352839
539551 524114
259958 525392
656789 808657
822782 753815
107381 588332
949588 710012
276870 65465
944479 530823
61790 745635
103267 859323
536363 453504
423434 475223
493293 890159
94891 417603
845422 704295
322863 62116
340030 907093
521065 489701
516857 51071
135263 69259
547810 168558
536019 276546
287995 514256
937565 580542
780353 209864
8829 928185
564765 702442
462959 211175
187801 191548
11585 966048
562554 186632
10734 384402
646933 914438
247372 865463
628816 607507
89844 533787
917162 26023
4415 912641
687121 472828
906556 769324
350858 804496
872056 900031
961785 441549
331724 413677
808147 317324
252255 568380
973591 92465
861704 382120
312765 121044
618430 307341
969773 85421
414899 143817
330770 417300
639945 709139
423326 326229
583132 217789
734638 667026
960566 380599
328000 82471
54295 599908
670851 782245
78146 827737
755902 463946
602758 930805
557608 928612
160159 728227
308296 161654
841692 3263
199810 968643
235592 758392
803233 244680
732648 20282
27757 290964
731713 158736
570406 446534
484022 139583
587102 912837
387513 984055
467617 228638
261777 877461
548598 774598
196572 689086
376679 935646
953830 961848
5658 251212
219520 117643
512497 536381
291691 87660
61327 987539
660074 277212
795147 109279
827120 5906
668355 208508
461531 259975
546255 952648
303796 421494
334635 55547
163572 576622
23778 434305
818028 321522
738981 651110
771788 510050
172562 800397
296628 341917
684588 438316
856490 570990
238720 236352
172941 293831
791031 296503
603024 459436
219304 198967
204967 939663
894309 81770
166622 302622
83052 307845
431671 463732
693515 751915
472246 219009
770389 598564
783034 136836
23762 591395
11089 677157
639015 583110
584261 497100
457018 530401
370098 46746
916851 665088
677623 626168
417364 983083
920104 585725
688677 88617
362360 526062
972016 437627
420205 647723
332969 793394
816390 963763
788919 549213
698485 441670
791961 503988
897177 539093
458864 731314
919377 820117
365431 635636
313246 108306
760463 584427
742383 199302
160381 704237
583490 947254
134610 788976
99156 495948
145829 693377
230914 483326
781421 869002
101810 243541
259637 283294
346131 196776
637016 424428
718102 175327
438612 968812
266358 859426
732669 276535
288557 345152
763853 65096
682688 248192
269680 758994
823063 248921
467695 67639
298098 7638
407488 525004
937743 942423
903799 546479
180750 685183
840549 323093
933412 943250
126681 53667
342229 82849
948214 191826
246865 53276
109361 729731
320493 365419
219219 885238
409682 127416
600345 964133
732800 261263
140042 681777
753778 988517
185969 335656
771017 705007
1232 754124
358634 813854
340100 558998
324883 461959
303917 414347
726638 38797
823308 647651
136444 557580
794745 388375
71834 100713
854624 618506
890864 939298
510625 315373
662280 719041
316950 743726
512955 532864
425294 954657
337552 135110
133059 590529
549777 563224
906077 544821
608295 606850
843517 730302
973547 700867
191275 865091
848890 828847
814324 8969
962717 508960
692352 81349
320828 969841
