1 999999
999999 1
500 500
35 700
965430 2
47682 47682
378844 640239
251858 886040
566200 835260
56831 484334
965043 852001
707846 596463
708503 408352
432351 414419
321549 119884
953845 307728
144292 487864
786516 925190
549974 864743
389050 917599
346635 735632
269632 976692
504551 359923
426208 243836
846662 75237
759301 839159
653798 764360
529404 839897
381016 667750
983614 535925
473019 640849
475662 565973
785991 830560
968374 771392
571663 334558
993729 421512
353008 255406
658365 696114
40986 581644
122416 176433
379270 792649
876830 346517
120674 107069
646781 243494
468309 247754
693604 548245
584637 815790
766438 121531
823091 988550
116496 640347
966175 543720
149741 27724
134751 299700
998438 781273
338063 96077
22034 585342
331811 161594
812468 595282
41468 698891
608019 487167
826847 423071
468569 142536
500801 487120
778720 572853
515556 764687
837817 989331
162106 164447
880370 501515
76136 673779
623786 877277
186670 894782
430922 5749
220535 208306
298206 934051
71041 10047
285677 492378
701253 355567
719149 224905
836245 664589
7586 330766
588466 45810
702978 489056
46972 122376
149447 954699
678589 349609
972874 608984
852470 616851
342928 91514
893558 863702
473950 633861
837879 574641
679313 327667
65289 942754
122592 797332
882756 994501
927035 143613
997647 219651
896355 109705
895019 838084
963656 424519
941891 315492
96897 875260
255088 202894
956679 404327
615249 371224
805073 607799
901159 315128
715920 166543
416375 156529
490941 930004
459205 5496
664558 388019
72573 367004
104424 51339
353268 961826
667716 725854
535230 828435
355169 893867
880475 287552
613224 731536
529312 736163
713023 820736
773675 439362
970823 282413
21669 149621
887209 60040
677345 375513
746671 72865
38898 155395
784183 93436
775128 65688
510806 40313
6672 446035
169864 762808
503329 370172
586867 129209
627897 959433
364148 492415
552906 965090
661059 94065
122742 591620
353834 469564
987947 824157
664068 287449
722182 164256
887016 717871
929095 951535
324148 19068
93017 479158
808685 48277
502422 947504
980159 529391
190561 227226
790809 606091
964055 762162
6729 45049
78396 823961
551867 396082
387906 477673
930807 293926
486770 968091
782690 927216
983026 383771
703259 784099
726390 738166
472242 933694
89410 195954
840130 424951
684551 559623
224553 693744
964155 649705
40649 22242
583104 456070
863416 611409
477810 108273
364995 183431
932216 387510
863846 31975
775314 551358
24104 486391
833921 788542
930482 544426
781218 803712
775433 92408
702529 416371
878795 73021
625468 208895
108507 167359
307122 289401
245740 94691
866107 239823
390643 239441
391955 924224
106780 831071
983799 79200
677739 609256
443699 265857
684587 21042
56701 666463
77318 260447
982554 41961
316708 888113
679598 525619
135132 664205
655469 263477
185633 629066
525240 355381
84656 948278
509564 727969
973544 703985
472050 87714
729351 504020
34651 690521
418527 577047
2276 143775
387808 919465
703087 893873
590637 43228
949622 74141
436938 379426
554851 849831
475153 910128
910933 343871
917206 669946
684111 355653
880776 416328
969093 179568
910689 398568
948897 680452
12800 889825
358276 924045
783199 364198
34092 985935
391544 565730
644573 365083
649137 657067
716797 343653
