511303 887528
784595 371735
59423 748454
895748 564698
585562 77633
491312 362207
179176 693409
183648 308597
760142 505247
572231 430284
260739 392398
940623 530446
438675 662885
46672 346063
804258 882728
797651 859014
417289 731544
597145 45629
341589 345686
497535 169616
979829 286372
969012 932104
64144 759727
809324 458619
26134 891046
922172 746661
823389 338281
727976 876598
452154 858084
714488 514046
241712 104061
801000 547618
267027 916662
656180 321676
961070 82907
930406 921608
712963 55287
802380 535260
947349 247563
662348 641976
652828 51540
137936 467690
193666 530919
90482 644984
298885 280268
26662 516573
225826 243520
150898 461413
920793 56355
871718 398294
400732 921272
539649 954009
888516 839443
388937 424247
962155 20458
959467 713910
909794 857713
816601 358583
410471 720533
858297 807613
512744 374469
320870 457532
149696 151678
597545 105547
818774 140708
392587 459452
477699 871081
279819 549854
446312 511362
176063 920323
737548 697620
535072 501994
922407 813977
184092 765376
60243 27431
132727 354000
540748 9154
569305 155098
450332 618687
476910 346255
855080 908409
203839 865445
482732 582774
253096 247906
444537 524148
193368 830203
230065 267718
579568 670866
637281 545607
605117 709348
939846 295101
268797 351285
382553 641480
165522 619457
732447 250378
895120 500891
381279 459153
395300 438893
662594 445468
529900 986720
702165 41858
859145 845969
963273 952590
314275 488279
957109 697123
144574 858883
818471 626390
822735 736618
485788 814576
894124 930634
573393 522563
243257 481445
168249 300188
476390 833963
3886 193299
394045 807318
928674 929279
52030 251512
889321 894251
933077 333980
938284 8465
117734 145997
614539 921408
665767 284623
824299 376551
243752 623191
719806 149189
35752 318129
141668 768904
949819 389973
438731 37717
879562 468568
811294 461791
582302 470913
804811 988282
509077 834934
210050 12634
540999 187267
261677 271317
23650 763294
630076 342267
561160 289439
490073 324205
539795 224329
733570 208826
882843 554551
106824 772471
164432 702539
505570 115132
515820 811798
93522 728960
911306 41324
316876 748875
401684 20309
354286 801236
114353 842767
52119 924460
458871 703456
517216 11645
607688 283488
48652 422076
649380 798237
812441 646095
405427 223518
75335 741537
344574 925705
329925 543110
879197 896987
614620 197141
684263 572556
738959 299545
27766 403230
299511 134447
622591 730565
827628 533798
464874 776252
24492 920040
202164 211642
994088 764703
403078 612820
415701 275044
506968 984514
469861 616157
836641 803
224338 479531
302875 119295
152107 571261
164773 56505
188826 687790
59770 383173
391551 717729
656925 952071
562005 799363
497682 633924
264318 209632
37795 566794
485909 511263
323247 505952
29077 276457
533936 905722
458337 389441
260781 542073
257690 453991
276016 142910
485751 42917
138199 231591
309712 431142
8982 636122
782798 651806
712839 724917
755622 964487
290991 440051
550122 917246
560449 419787
118025 198903
814409 824192
432234 278589
658598 47575
132123 396456
237727 795923
824141 551647
170142 115496
707053 987252
710588 360685
656811 976075
11119 880039
457056 370076
431904 657664
248415 277602
64271 691485
639762 470735
939607 496288
156819 364169
226995 123573
797033 518451
745038 866383
644618 684952
167179 487849
856402 213854
597646 37037
327486 610180
791189 714237
41651 800759
825475 277099
105926 1454
987737 440842
521600 160772
620286 749852
