863634 997779
341024 228580
570234 639545
495275 437495
241744 318161
986791 203695
874245 907972
413606 768305
363708 789734
933060 784617
607903 382066
613832 100877
968300 519951
742554 623984
596111 408505
27883 804755
412101 212930
911251 234547
742718 109903
686179 190122
525686 2251
150918 806016
103911 970280
371988 662346
719987 413037
136713 731241
330203 945734
318336 777119
738936 399924
80015 199736
493693 329946
638813 987646
152098 455909
261913 792836
192095 112595
418848 343416
227363 670633
597779 648958
828947 953950
104519 617759
495865 133384
628976 620339
469749 390260
679065 552326
179287 648360
950367 72919
937988 565681
130782 213664
78179 882722
325081 488753
688152 267542
394496 589360
38359 630939
222349 88424
564611 909770
522264 758829
10833 738646
207002 102511
796143 5805
254714 179554
612683 883619
255834 56141
222392 956369
330874 516448
579122 319932
64024 90865
50189 525812
890369 773567
133336 441740
93297 822632
664424 400326
645704 165565
192033 487486
758548 985556
707106 410852
36481 711364
211434 807938
870787 425934
15887 408727
728869 830328
347995 789674
639928 370353
175600 241664
250581 456555
191623 417068
104888 53250
737529 616544
886375 781109
446191 609065
157301 62985
918393 29708
14064 649792
99852 960714
877113 750794
799799 479349
19741 1077
461950 981882
817278 291751
732150 879984
740541 470837
564623 667631
144259 90033
390660 518245
793761 823544
395506 756696
731408 89122
15419 233618
228411 508015
363483 553254
394820 45565
111260 740686
74896 611907
313293 766838
378013 200282
976902 133941
576871 747258
401773 104814
810474 812374
939261 999939
178718 967088
145051 511516
384299 870066
203550 621348
46 851336
994508 144327
516959 752772
998229 371557
8520 990263
45129 627328
928645 612843
614729 863025
898414 273551
89630 329998
636577 353747
328197 919470
383847 906756
730350 918827
136941 800403
914507 892046
7410 468744
781813 97680
737180 543404
713420 993437
912465 439368
688652 199400
573463 193487
243662 449176
927408 426368
412550 75874
956100 766608
275949 447897
28217 602456
115258 797619
101171 152867
21172 784217
222499 620130
403366 307970
436798 944831
494650 783184
751471 366569
243795 901407
59165 588779
66401 393021
357988 563419
403473 650189
50254 973577
48492 896171
501938 660832
743244 817032
452478 5572
690885 755246
818622 981464
143557 915490
827497 331483
178183 972770
701611 906563
458241 106835
91067 423194
572067 76312
227472 5898
530362 390860
763196 683992
66012 60766
587108 997373
129083 230054
934908 882286
386047 261574
401835 347375
278914 999379
511243 877097
498715 96142
840390 875323
852297 112898
702056 258679
5537 978539
470233 872390
360676 828145
443305 928845
727157 829293
100399 233321
844539 705553
145239 182746
247852 194717
94799 42251
409648 119776
769691 964514
444189 651756
503432 307432
543191 738592
191560 985457
193157 943249
226320 223749
161576 786205
189599 890654
9707 291934
331916 196293
575009 175777
694293 953577
654191 44037
747692 786737
111300 337694
921367 667645
860054 738022
2579 375201
993898 412183
637015 243678
597900 896519
890519 747213
20444 178771
978207 76079
311697 907517
908817 53093
160881 378147
594421 744838
868634 712606
576794 624867
779470 389372
804456 763990
245124 351777
615040 97078
242998 328360
270608 451507
30236 269613
928101 77447
564340 748830
78155 997943
482639 919619
567229 8105
149795 364409
352526 534772
523231 258872
